{
    "systems": {
        "otc-gfxtest-bsw-01.local": {"switch": 1, "outlet": 1},
        "otc-gfxtest-bsw-02.local": {"switch": 1, "outlet": 2},
        "otc-gfxtest-bsw-03.local": {"switch": 1, "outlet": 3},
        "otc-gfxtest-bsw-04.local": {"switch": 1, "outlet": 4},
        "otc-gfxtest-bsw-05.local": {"switch": 1, "outlet": 5},
        "otc-gfxtest-bsw-06.local": {"switch": 1, "outlet": 6},
        "otc-gfxtest-bsw-07.local": {"switch": 1, "outlet": 7},
        "otc-gfxtest-bsw-08.local": {"switch": 1, "outlet": 8},

        "otc-gfxtest-tgl-01.local": {"switch": 2, "outlet": 1},
        "otc-gfxtest-tgl-02.local": {"switch": 2, "outlet": 2},
        "otc-gfxtest-tgl-03.local": {"switch": 2, "outlet": 3},
        "otc-gfxtest-tgl-04.local": {"switch": 2, "outlet": 4},
        "otc-gfxtest-tgl-05.local": {"switch": 2, "outlet": 5},
        "otc-gfxtest-tgl-06.local": {"switch": 2, "outlet": 6},
        "otc-gfxtest-tgl-07.local": {"switch": 2, "outlet": 7},
        "otc-gfxtest-tgl-08.local": {"switch": 2, "outlet": 8},
    },
    "switches": {
        "1": {
            "hostname": "192.168.1.2",
            "userid": "admin",
            "password": "1234"
        },
        "2": {
            "hostname": "192.168.1.3",
            "userid": "admin",
            "password": "1234"
        }
    }
}
